Step-by-Step Instructions
…
So Far

So far, we have successfully read in ten years of NBA data from basketball-reference.com. My dataset now includes player data for each year including Career totals, Playoff data, and Career Playoff totals data. Each player data row also includes the Salary for the year following the data. This is so I can try to understand what factors from this year contribute to the salary the player gets paid in the following year.

Grabbing the data has been one of the more difficult aspects of the project so far and has taken up most of our time.

R Coding Script Examples

NBA Dataset for 2016

Here I show the first nine rows and ten columns of the data table, using the select command:

NBAData2016 %>% select(1:9) %>% tbl_df

## # A tibble: 366 × 9
##      No.          Player  Pos.x       Ht    Wt         Birth.Date  Var.7
##    <int>          <fctr> <fctr>    <dbl> <int>             <fctr> <fctr>
## 1      0    Aaron Brooks     PG 6.000000   161   January 14, 1985     us
## 2      0    Aaron Gordon     SF 6.750000   220 September 16, 1995     us
## 3      9  Aaron Harrison     SG 6.500000   210   October 28, 1994     us
## 4     33   Adreian Payne     PF 6.833333   237  February 19, 1991     us
## 5      9   Alan Anderson     SF 6.500000   220   October 16, 1982     us
## 6     15   Alan Williams     PF 6.666667   260   January 28, 1993     us
## 7     10      Alec Burks     SG 6.500000   214      July 20, 1991     us
## 8     42   Alexis Ajinca      C 7.166667   248        May 6, 1988     fr
## 9     21        Alex Len      C 7.083333   260      June 16, 1993     ua
## 10     8 Al-Farouq Aminu     SF 6.750000   220 September 21, 1990     us
## # ... with 356 more rows, and 2 more variables: Exp <int>, College <fctr>
…
